^C:\USERS\OF913\SOURCE\REPOS\12_4_1_3\PROC\7LAB_B\7LAB_B\DEBUG\7LAB_B.OBJ|C:\USERS\OF913\SOURCE\REPOS\12_4_1_3\PROC\7LAB_B\7LAB_B\DEBUG\SOURCE.OBJ
C:\USERS\OF913\SOURCE\REPOS\12_4_1_3\PROC\7LAB_B\DEBUG\7LAB_B.EXE
C:\USERS\OF913\SOURCE\REPOS\12_4_1_3\PROC\7LAB_B\DEBUG\7LAB_B.ILK
C:\USERS\OF913\SOURCE\REPOS\12_4_1_3\PROC\7LAB_B\DEBUG\7LAB_B.PDB
^C:\USERS\OF913\ONEDRIVE\РАБОЧИЙ СТОЛ\НАСТЕ\PROC\7LAB_B\7LAB_B\DEBUG\7LAB_B.OBJ|C:\USERS\OF913\ONEDRIVE\РАБОЧИЙ СТОЛ\НАСТЕ\PROC\7LAB_B\7LAB_B\DEBUG\SOURCE.OBJ
C:\USERS\OF913\ONEDRIVE\Рабочий стол\Насте\PROC\7LAB_B\DEBUG\7LAB_B.EXE
C:\USERS\OF913\ONEDRIVE\Рабочий стол\Насте\PROC\7LAB_B\DEBUG\7LAB_B.ILK
C:\USERS\OF913\ONEDRIVE\РАБОЧИЙ СТОЛ\НАСТЕ\PROC\7LAB_B\DEBUG\7LAB_B.PDB
